<svg xmlns="http://www.w3.org/2000/svg" width="114" height="114" viewBox="0 0 114 114">
  <g id="_04" data-name="04" transform="translate(-507 -2963)">
    <g id="Elipse_88" data-name="Elipse 88" transform="translate(507 2963)" fill="none" stroke="#ffc8bf" stroke-width="3">
      <circle cx="57" cy="57" r="57" stroke="none"/>
      <circle cx="57" cy="57" r="55.5" fill="none"/>
    </g>
    <circle id="Elipse_92" data-name="Elipse 92" cx="42.5" cy="42.5" r="42.5" transform="translate(522 2978)" fill="#057683"/>
    <text id="_04-2" data-name="04" transform="translate(549.5 3031.762)" fill="#fff" font-size="26" font-family="YuseiMagic-Regular, Yusei Magic"><tspan x="0" y="0">04</tspan></text>
  </g>
</svg>
