<svg xmlns="http://www.w3.org/2000/svg" width="43.145" height="43.146" viewBox="0 0 43.145 43.146">
  <g id="Icon_feather-instagram" data-name="Icon feather-instagram" transform="translate(1.5 1.5)">
    <path id="Caminho_126" data-name="Caminho 126" d="M13.036,3H33.109A10.036,10.036,0,0,1,43.145,13.036V33.109A10.036,10.036,0,0,1,33.109,43.145H13.036A10.036,10.036,0,0,1,3,33.109V13.036A10.036,10.036,0,0,1,13.036,3Z" transform="translate(-3 -3)" fill="none" stroke="#fff" stroke-linecap="round" stroke-linejoin="round" stroke-width="3"/>
    <path id="Caminho_127" data-name="Caminho 127" d="M28.036,18.787a8.029,8.029,0,1,1-6.765-6.764,8.029,8.029,0,0,1,6.765,6.764Z" transform="translate(0.066 0.022)" fill="none" stroke="#fff" stroke-linecap="round" stroke-linejoin="round" stroke-width="3"/>
    <path id="Caminho_128" data-name="Caminho 128" d="M26.25,9.75h0" transform="translate(4.863 -0.717)" fill="none" stroke="#fff" stroke-linecap="round" stroke-linejoin="round" stroke-width="3"/>
  </g>
</svg>
